# Blender v2.79 (sub 7) OBJ File: 'cube.blend'
# www.blender.org
o cube
v 0.500000 -0.500000 0.500000
v -0.500000 -0.500000 -0.500000
v 0.500000 -0.500000 -0.500000
v -0.500000 0.500000 -0.500000
v 0.499999 0.500000 0.500000
v 0.500000 0.500000 -0.499999
v -0.500000 -0.500000 0.500000
v -0.500000 0.500000 0.500000
vt 0.000000 0.000000
vt 1.000000 1.000000
vt 0.000000 1.000000
vt 0.000000 0.000000
vt -1.000000 -1.000000
vt -1.000000 -0.000000
vt 0.000000 1.000000
vt -1.000000 0.000000
vt -1.000000 1.000000
vt 0.000001 0.000000
vt 1.000000 -1.000000
vt 0.000000 -1.000000
vt 0.000000 0.000000
vt 1.000000 1.000000
vt 0.000000 1.000000
vt 0.000000 0.000000
vt 1.000000 0.000000
vt 0.000000 -1.000000
vt 1.000000 0.000000
vt 1.000000 0.000000
vn 0.0000 -1.0000 0.0000
vn 0.0000 1.0000 -0.0000
vn 1.0000 0.0000 0.0000
vn -0.0000 -0.0000 1.0000
vn -1.0000 0.0000 0.0000
vn 0.0000 0.0000 -1.0000
s 1
f 1/1/1 2/2/1 3/3/1
f 4/4/2 5/5/2 6/6/2
f 6/7/3 1/8/3 3/9/3
f 5/10/4 7/11/4 1/12/4
f 7/13/5 4/14/5 2/15/5
f 3/16/6 4/14/6 6/7/6
f 1/1/1 7/17/1 2/2/1
f 4/4/2 8/18/2 5/5/2
f 6/7/3 5/10/3 1/8/3
f 5/10/4 8/19/4 7/11/4
f 7/13/5 8/19/5 4/14/5
f 3/16/6 2/20/6 4/14/6
